7 O modelo Poisson – Introdução à Inferência Bayesiana
…
Crime de estupro no país (cont.) Os dados deste exemplo estão no banco abaixo.

require(gsheet)

Carregando pacotes exigidos: gsheet

Warning: pacote 'gsheet' foi compilado no R versão 4.4.3

url <- 'https://docs.google.com/spreadsheets/d/11Sr8mqilWCe6Dj8TO6PgTYpJT292vbon1XnB0Co1Trc/edit?usp=sharing'

dados <- gsheet2tbl(url)
print(dados)

# A tibble: 27 × 3
   `Unidade Federativa (UF)` `População Estimada (2023)` `Crimes de estupro`
   <chr>                                           <dbl>               <dbl>
 1 Acre                                           830018                 745
 2 Alagoas                                       3127511                1040
 3 Amapá                                          733759                 628
 4 Amazonas                                      4145525                 836
 5 Bahia                                        14659023                4558
 6 Ceará                                         9187078                1897
 7 Distrito Federal                              2817068                 754
 8 Espírito Santo                                4018650                1736
 9 Goiás                                         7206589                3667
10 Maranhão                                      6775152                2273
# ℹ 17 more rows
…
